<svg xmlns="http://www.w3.org/2000/svg" width="20" height="12.245" viewBox="0 0 20 12.245">
  <path id="União_9" data-name="União 9" d="M-12987,2688.123a11.228,11.228,0,0,1,10-6.123,11.224,11.224,0,0,1,10,6.124,11.214,11.214,0,0,1-10,6.121,11.226,11.226,0,0,1-10-6.124Zm5.919,0a4.081,4.081,0,0,0,4.081,4.082,4.082,4.082,0,0,0,4.082-4.082,4.082,4.082,0,0,0-4.082-4.082A4.081,4.081,0,0,0-12981.082,2688.123Zm1.02,0a3.062,3.062,0,0,1,3.062-3.061,3.061,3.061,0,0,1,3.062,3.061,3.061,3.061,0,0,1-3.062,3.061A3.062,3.062,0,0,1-12980.062,2688.123Z" transform="translate(12987.001 -2682)"/>
</svg>
