<svg xmlns="http://www.w3.org/2000/svg" width="24.83" height="5.2" viewBox="0 0 24.83 5.2">
  <path id="Linha_404" data-name="Linha 404" d="M19.668,2.6H-.038A2.581,2.581,0,0,1-2.6,0,2.581,2.581,0,0,1-.038-2.6H19.668A2.581,2.581,0,0,1,22.23,0,2.581,2.581,0,0,1,19.668,2.6Z" transform="translate(2.6 2.6)" fill="#fff"/>
</svg>
