<svg id="Componente_5_1" data-name="Componente 5 – 1" xmlns="http://www.w3.org/2000/svg" width="20" height="19.995" viewBox="0 0 20 19.995">
  <path id="Caminho_26" data-name="Caminho 26" d="M23,13H13V33H23V31.427H14.568V14.568H23ZM19.273,23.782H30.034L26.4,27.416l1.109,1.109L33,23.034l-5.491-5.491L26.4,18.651l3.562,3.562H19.273Z" transform="translate(-13 -13)" fill="#ea613b" fill-rule="evenodd"/>
</svg>
